%YAML 1.1
%TAG !u! tag:unity3d.com,2011:
--- !u!21 &2100000
Material:
  serializedVersion: 6
  m_ObjectHideFlags: 0
  m_PrefabParentObject: {fileID: 0}
  m_PrefabInternal: {fileID: 0}
  m_Name: Buildings_01
  m_Shader: {fileID: 4800000, guid: 102ae67d75d24bf49b90cba8fedb7360, type: 3}
  m_ShaderKeywords: _SPECGLOSSMAP
  m_LightmapFlags: 4
  m_EnableInstancingVariants: 1
  m_CustomRenderQueue: 2900
  stringTagMap: {}
  disabledShaderPasses: []
  m_SavedProperties:
    serializedVersion: 3
    m_TexEnvs:
    - _BumpMap:
        m_Texture: {fileID: 2800000, guid: e8162c6ac929f734889c1b9bc649bc0d, type: 3}
        m_Scale: {x: 1, y: 1}
        m_Offset: {x: 0, y: 0}
    - _DetailAlbedoMap:
        m_Texture: {fileID: 2800000, guid: d7485b92acbd939428383f23da2a64d5, type: 3}
        m_Scale: {x: 1, y: 1}
        m_Offset: {x: 0, y: 0}
    - _DetailMask:
        m_Texture: {fileID: 0}
        m_Scale: {x: 1, y: 1}
        m_Offset: {x: 0, y: 0}
    - _DetailNormalMap:
        m_Texture: {fileID: 0}
        m_Scale: {x: 1, y: 1}
        m_Offset: {x: 0, y: 0}
    - _EmissionMap:
        m_Texture: {fileID: 0}
        m_Scale: {x: 1, y: 1}
        m_Offset: {x: 0, y: 0}
    - _MainTex:
        m_Texture: {fileID: 2800000, guid: e22b61e32a24f6d4d8cf3c477532f163, type: 3}
        m_Scale: {x: 1, y: 1}
        m_Offset: {x: 0, y: 0}
    - _MetallicGlossMap:
        m_Texture: {fileID: 0}
        m_Scale: {x: 1, y: 1}
        m_Offset: {x: 0, y: 0}
    - _OcclusionMap:
        m_Texture: {fileID: 2800000, guid: d4ad9b39ceb466643bbad77023818c53, type: 3}
        m_Scale: {x: 1, y: 1}
        m_Offset: {x: 0, y: 0}
    - _ParallaxMap:
        m_Texture: {fileID: 0}
        m_Scale: {x: 1, y: 1}
        m_Offset: {x: 0, y: 0}
    - _SpecGlossMap:
        m_Texture: {fileID: 2800000, guid: e7c51ce583136f14eb7ce6630494c7f9, type: 3}
        m_Scale: {x: 1, y: 1}
        m_Offset: {x: 0, y: 0}
    m_Floats:
    - _BumpScale: 1
    - _Cutoff: 0.5
    - _DetailNormalMapScale: 1
    - _DstBlend: 0
    - _EmissiveIntensity: 1
    - _Gloss: 0.7
    - _GlossMapScale: 0.746
    - _Glossiness: 1
    - _GlossyReflections: 1
    - _Metallic: 0
    - _Mode: 0
    - _NormalIntensity: 0.1
    - _OcclusionStrength: 1
    - _Parallax: 0.02
    - _SmoothnessTextureChannel: 0
    - _SpecIntensity: 2
    - _SpecularHighlights: 1
    - _SrcBlend: 1
    - _Transparency: 0
    - _UVSec: 1
    - _ZWrite: 1
    m_Colors:
    - _Color: {r: 0.5514706, g: 0.5514706, b: 0.5514706, a: 1}
    - _Diffusecolor: {r: 1, g: 1, b: 1, a: 1}
    - _EmissionColor: {r: 0, g: 0, b: 0, a: 1}
    - _SpecColor: {r: 0.2, g: 0.2, b: 0.2, a: 1}
    - _Speccolor: {r: 1, g: 1, b: 1, a: 1}
