%YAML 1.1
%TAG !u! tag:unity3d.com,2011:
--- !u!114 &11400000
MonoBehaviour:
  m_ObjectHideFlags: 0
  m_PrefabParentObject: {fileID: 0}
  m_PrefabInternal: {fileID: 0}
  m_GameObject: {fileID: 0}
  m_Enabled: 1
  m_EditorHideFlags: 0
  m_Script: {fileID: 2019389346, guid: 89f0137620f6af44b9ba852b4190e64e, type: 3}
  m_Name: tabel
  m_EditorClassIdentifier: 
  hashCode: 134190846
  material: {fileID: 21864888927368502}
  materialHashCode: 0
  spriteSheet: {fileID: 2800000, guid: 84c07cadaf6bf8d4baaec2fc394a2697, type: 3}
  spriteInfoList:
  - id: 0
    x: 0
    y: 0
    width: 785
    height: 285
    xOffset: -392.5
    yOffset: 142.5
    xAdvance: 785
    scale: 1
    name: img1
    hashCode: 3869266
    unicode: 0
    pivot: {x: -392.5, y: 142.5}
    sprite: {fileID: 21300000, guid: 84c07cadaf6bf8d4baaec2fc394a2697, type: 3}
  fallbackSpriteAssets: []
--- !u!21 &21864888927368502
Material:
  serializedVersion: 6
  m_ObjectHideFlags: 1
  m_PrefabParentObject: {fileID: 0}
  m_PrefabInternal: {fileID: 0}
  m_Name: TextMeshPro/Sprite
  m_Shader: {fileID: 4800000, guid: 3a1c68c8292caf046bd21158886c5e40, type: 3}
  m_ShaderKeywords: 
  m_LightmapFlags: 4
  m_EnableInstancingVariants: 0
  m_CustomRenderQueue: -1
  stringTagMap: {}
  disabledShaderPasses: []
  m_SavedProperties:
    serializedVersion: 3
    m_TexEnvs:
    - _MainTex:
        m_Texture: {fileID: 2800000, guid: 84c07cadaf6bf8d4baaec2fc394a2697, type: 3}
        m_Scale: {x: 1, y: 1}
        m_Offset: {x: 0, y: 0}
    m_Floats:
    - _ColorMask: 15
    - _Stencil: 0
    - _StencilComp: 8
    - _StencilOp: 0
    - _StencilReadMask: 255
    - _StencilWriteMask: 255
    - _UseUIAlphaClip: 0
    m_Colors:
    - _ClipRect: {r: -32767, g: -32767, b: 32767, a: 32767}
    - _Color: {r: 1, g: 1, b: 1, a: 1}
