%YAML 1.1
%TAG !u! tag:unity3d.com,2011:
--- !u!74 &7400000
AnimationClip:
  m_ObjectHideFlags: 0
  m_PrefabParentObject: {fileID: 0}
  m_PrefabInternal: {fileID: 0}
  m_Name: Green_ray
  serializedVersion: 6
  m_Legacy: 0
  m_Compressed: 0
  m_UseHighQualityCurve: 1
  m_RotationCurves: []
  m_CompressedRotationCurves: []
  m_EulerCurves:
  - curve:
      serializedVersion: 2
      m_Curve:
      - serializedVersion: 2
        time: 0
        value: {x: 2.5310001, y: 7.15, z: -18.263}
        inSlope: {x: 0, y: 0, z: 0}
        outSlope: {x: 0, y: 0, z: 0}
        tangentMode: 0
      - serializedVersion: 2
        time: 10
        value: {x: 2.6130002, y: 7.3, z: -19.09}
        inSlope: {x: 0, y: 0.07949992, z: -0.15745713}
        outSlope: {x: 0, y: 0.07949992, z: -0.15745713}
        tangentMode: 0
      - serializedVersion: 2
        time: 11.666667
        value: {x: 2.6130002, y: 7.54, z: -20.1}
        inSlope: {x: 0, y: 0.13499996, z: -0.52500004}
        outSlope: {x: 0, y: 0.13499996, z: -0.52500004}
        tangentMode: 0
      - serializedVersion: 2
        time: 13.333333
        value: {x: 2.6130002, y: 7.75, z: -20.84}
        inSlope: {x: 0, y: 0.11699998, z: -0.41999993}
        outSlope: {x: 0, y: 0.11699998, z: -0.41999993}
        tangentMode: 0
      - serializedVersion: 2
        time: 15
        value: {x: 2.6130002, y: 7.93, z: -21.5}
        inSlope: {x: 0, y: 0.1319999, z: -0.51899993}
        outSlope: {x: 0, y: 0.1319999, z: -0.51899993}
        tangentMode: 0
      - serializedVersion: 2
        time: 16.666666
        value: {x: 2.6130002, y: 8.19, z: -22.57}
        inSlope: {x: 0, y: 0.14099991, z: -0.6029999}
        outSlope: {x: 0, y: 0.14099991, z: -0.6029999}
        tangentMode: 0
      - serializedVersion: 2
        time: 18.333334
        value: {x: 2.6130002, y: 8.4, z: -23.51}
        inSlope: {x: 0, y: 0.14400014, z: 0}
        outSlope: {x: 0, y: 0.14400014, z: 0}
        tangentMode: 0
      - serializedVersion: 2
        time: 20
        value: {x: 2.6130002, y: 8.67, z: -23.51}
        inSlope: {x: 0, y: 0.15000007, z: 0}
        outSlope: {x: 0, y: 0.15000007, z: 0}
        tangentMode: 0
      - serializedVersion: 2
        time: 21.666666
        value: {x: 2.6130002, y: 8.9, z: -23.24}
        inSlope: {x: 0, y: 0.18899997, z: 0.1169998}
        outSlope: {x: 0, y: 0.18899997, z: 0.1169998}
        tangentMode: 0
      - serializedVersion: 2
        time: 23.333334
        value: {x: 2.6130002, y: 9.3, z: -23.12}
        inSlope: {x: 0, y: 0.2017501, z: 0.05759948}
        outSlope: {x: 0, y: 0.2017501, z: 0.05759948}
        tangentMode: 0
      - serializedVersion: 2
        time: 30
        value: {x: 2.6130002, y: 10.39, z: -21.28}
        inSlope: {x: 0, y: 0.0847498, z: 0.47160012}
        outSlope: {x: 0, y: 0.0847498, z: 0.47160012}
        tangentMode: 0
      - serializedVersion: 2
        time: 31.666666
        value: {x: 2.6130002, y: 10.4, z: -19.19}
        inSlope: {x: 0, y: 0.03299991, z: 1.2240005}
        outSlope: {x: 0, y: 0.03299991, z: 1.2240005}
        tangentMode: 0
      - serializedVersion: 2
        time: 33.333332
        value: {x: 2.6130002, y: 10.5, z: -17.2}
        inSlope: {x: 0, y: 0.06000022, z: 1.209}
        outSlope: {x: 0, y: 0.06000022, z: 1.209}
        tangentMode: 0
      - serializedVersion: 2
        time: 35
        value: {x: 2.6130002, y: 10.6, z: -15.16}
        inSlope: {x: 0, y: 0.030001236, z: 1.2839992}
        outSlope: {x: 0, y: 0.030001236, z: 1.2839992}
        tangentMode: 0
      - serializedVersion: 2
        time: 36.666668
        value: {x: 2.6129975, y: 10.600004, z: -12.92}
        inSlope: {x: 0, y: 0.029999873, z: 1.3080004}
        outSlope: {x: 0, y: 0.029999873, z: 1.3080004}
        tangentMode: 0
      - serializedVersion: 2
        time: 38.333332
        value: {x: 2.6129975, y: 10.7, z: -10.8}
        inSlope: {x: 0, y: 0.029998729, z: 1.2660005}
        outSlope: {x: 0, y: 0.029998729, z: 1.2660005}
        tangentMode: 0
      - serializedVersion: 2
        time: 40
        value: {x: 2.6129975, y: 10.7, z: -8.7}
        inSlope: {x: 0, y: 0, z: 0}
        outSlope: {x: 0, y: 0, z: 0}
        tangentMode: 0
      m_PreInfinity: 2
      m_PostInfinity: 2
      m_RotationOrder: 4
    path: Scenario_01/Rays/Green_ray
  m_PositionCurves: []
  m_ScaleCurves:
  - curve:
      serializedVersion: 2
      m_Curve:
      - serializedVersion: 2
        time: 0
        value: {x: 1.06, y: 1, z: 1}
        inSlope: {x: 0, y: 0, z: 0}
        outSlope: {x: 0, y: 0, z: 0}
        tangentMode: 0
      - serializedVersion: 2
        time: 10
        value: {x: 1.04, y: 1, z: 1}
        inSlope: {x: -0.0034285681, y: 0, z: 0}
        outSlope: {x: -0.0034285681, y: 0, z: 0}
        tangentMode: 0
      - serializedVersion: 2
        time: 11.666667
        value: {x: 1.02, y: 1, z: 1}
        inSlope: {x: -0.013499988, y: 0, z: 0}
        outSlope: {x: -0.013499988, y: 0, z: 0}
        tangentMode: 0
      - serializedVersion: 2
        time: 13.333333
        value: {x: 0.995, y: 1, z: 1}
        inSlope: {x: -0.013800003, y: 0, z: 0}
        outSlope: {x: -0.013800003, y: 0, z: 0}
        tangentMode: 0
      - serializedVersion: 2
        time: 15
        value: {x: 0.974, y: 1, z: 1}
        inSlope: {x: -0.01320001, y: 0, z: 0}
        outSlope: {x: -0.01320001, y: 0, z: 0}
        tangentMode: 0
      - serializedVersion: 2
        time: 16.666666
        value: {x: 0.951, y: 1, z: 1}
        inSlope: {x: -0.013199989, y: 0, z: 0}
        outSlope: {x: -0.013199989, y: 0, z: 0}
        tangentMode: 0
      - serializedVersion: 2
        time: 18.333334
        value: {x: 0.93, y: 1, z: 1}
        inSlope: {x: -0.013799999, y: 0, z: 0}
        outSlope: {x: -0.013799999, y: 0, z: 0}
        tangentMode: 0
      - serializedVersion: 2
        time: 20
        value: {x: 0.905, y: 1, z: 1}
        inSlope: {x: -0.015000009, y: 0, z: 0}
        outSlope: {x: -0.015000009, y: 0, z: 0}
        tangentMode: 0
      - serializedVersion: 2
        time: 21.666666
        value: {x: 0.88, y: 1, z: 1}
        inSlope: {x: -0.016499981, y: 0, z: 0}
        outSlope: {x: -0.016499981, y: 0, z: 0}
        tangentMode: 0
      - serializedVersion: 2
        time: 23.333334
        value: {x: 0.85, y: 1, z: 1}
        inSlope: {x: -0.014399985, y: 0, z: 0}
        outSlope: {x: -0.014399985, y: 0, z: 0}
        tangentMode: 0
      - serializedVersion: 2
        time: 30
        value: {x: 0.76, y: 1, z: 1}
        inSlope: {x: -0.002399998, y: 0, z: 0}
        outSlope: {x: -0.002399998, y: 0, z: 0}
        tangentMode: 0
      - serializedVersion: 2
        time: 31.666666
        value: {x: 0.755, y: 1, z: 1}
        inSlope: {x: -0.003900005, y: 0, z: 0}
        outSlope: {x: -0.003900005, y: 0, z: 0}
        tangentMode: 0
      - serializedVersion: 2
        time: 33.333332
        value: {x: 0.747, y: 1, z: 1}
        inSlope: {x: -0.0036000067, y: 0, z: 0}
        outSlope: {x: -0.0036000067, y: 0, z: 0}
        tangentMode: 0
      - serializedVersion: 2
        time: 35
        value: {x: 0.743, y: 1, z: 1}
        inSlope: {x: -0.002699999, y: 0, z: 0}
        outSlope: {x: -0.002699999, y: 0, z: 0}
        tangentMode: 0
      - serializedVersion: 2
        time: 36.666668
        value: {x: 0.738, y: 1, z: 1}
        inSlope: {x: -0.0029999984, y: 0, z: 0}
        outSlope: {x: -0.0029999984, y: 0, z: 0}
        tangentMode: 0
      - serializedVersion: 2
        time: 38.333332
        value: {x: 0.733, y: 1, z: 1}
        inSlope: {x: 0, y: 0, z: 0}
        outSlope: {x: 0, y: 0, z: 0}
        tangentMode: 0
      m_PreInfinity: 2
      m_PostInfinity: 2
      m_RotationOrder: 4
    path: Scenario_01/Rays/Green_ray
  m_FloatCurves:
  - curve:
      serializedVersion: 2
      m_Curve:
      - serializedVersion: 2
        time: 0
        value: 0
        inSlope: Infinity
        outSlope: Infinity
        tangentMode: 103
      - serializedVersion: 2
        time: 9
        value: 1
        inSlope: Infinity
        outSlope: Infinity
        tangentMode: 103
      - serializedVersion: 2
        time: 22.333334
        value: 0
        inSlope: Infinity
        outSlope: Infinity
        tangentMode: 103
      - serializedVersion: 2
        time: 31
        value: 1
        inSlope: Infinity
        outSlope: Infinity
        tangentMode: 103
      - serializedVersion: 2
        time: 40
        value: 0
        inSlope: Infinity
        outSlope: Infinity
        tangentMode: 103
      m_PreInfinity: 2
      m_PostInfinity: 2
      m_RotationOrder: 4
    attribute: m_IsActive
    path: Scenario_01/Rays/Green_ray
    classID: 1
    script: {fileID: 0}
  - curve:
      serializedVersion: 2
      m_Curve:
      - serializedVersion: 2
        time: 0
        value: 1
        inSlope: 0
        outSlope: 0
        tangentMode: 136
      - serializedVersion: 2
        time: 9
        value: 1
        inSlope: 0
        outSlope: 0
        tangentMode: 136
      - serializedVersion: 2
        time: 9.666667
        value: 0
        inSlope: 0
        outSlope: 0
        tangentMode: 136
      - serializedVersion: 2
        time: 21.666666
        value: 0
        inSlope: 0
        outSlope: 0
        tangentMode: 136
      - serializedVersion: 2
        time: 22.333334
        value: 1
        inSlope: 0
        outSlope: 0
        tangentMode: 136
      - serializedVersion: 2
        time: 31
        value: 1
        inSlope: 0
        outSlope: 0
        tangentMode: 136
      - serializedVersion: 2
        time: 31.666666
        value: 0
        inSlope: 0
        outSlope: 0
        tangentMode: 136
      m_PreInfinity: 2
      m_PostInfinity: 2
      m_RotationOrder: 4
    attribute: material._Transparency
    path: Scenario_01/Rays/Green_ray
    classID: 23
    script: {fileID: 0}
  - curve:
      serializedVersion: 2
      m_Curve:
      - serializedVersion: 2
        time: 0
        value: 0.25
        inSlope: 0
        outSlope: 0
        tangentMode: 136
      - serializedVersion: 2
        time: 9
        value: 0.25
        inSlope: 0
        outSlope: 0
        tangentMode: 136
      - serializedVersion: 2
        time: 40
        value: 0.25
        inSlope: 0
        outSlope: 0
        tangentMode: 136
      m_PreInfinity: 2
      m_PostInfinity: 2
      m_RotationOrder: 4
    attribute: material._MainTex_ST.x
    path: Scenario_01/Rays/Green_ray
    classID: 23
    script: {fileID: 0}
  - curve:
      serializedVersion: 2
      m_Curve:
      - serializedVersion: 2
        time: 0
        value: 1
        inSlope: 0
        outSlope: 0
        tangentMode: 136
      - serializedVersion: 2
        time: 9
        value: 1
        inSlope: 0
        outSlope: 0
        tangentMode: 136
      - serializedVersion: 2
        time: 40
        value: 1
        inSlope: 0
        outSlope: 0
        tangentMode: 136
      m_PreInfinity: 2
      m_PostInfinity: 2
      m_RotationOrder: 4
    attribute: material._MainTex_ST.y
    path: Scenario_01/Rays/Green_ray
    classID: 23
    script: {fileID: 0}
  - curve:
      serializedVersion: 2
      m_Curve:
      - serializedVersion: 2
        time: 0
        value: 0
        inSlope: 0
        outSlope: 0
        tangentMode: 136
      - serializedVersion: 2
        time: 9
        value: 0
        inSlope: 0
        outSlope: 0.73996645
        tangentMode: 1
      - serializedVersion: 2
        time: 40
        value: 23
        inSlope: 0.7419355
        outSlope: 0.7419355
        tangentMode: 34
      m_PreInfinity: 2
      m_PostInfinity: 2
      m_RotationOrder: 4
    attribute: material._MainTex_ST.z
    path: Scenario_01/Rays/Green_ray
    classID: 23
    script: {fileID: 0}
  - curve:
      serializedVersion: 2
      m_Curve:
      - serializedVersion: 2
        time: 0
        value: 0
        inSlope: 0
        outSlope: 0
        tangentMode: 136
      - serializedVersion: 2
        time: 9
        value: 0
        inSlope: 0
        outSlope: 0
        tangentMode: 136
      - serializedVersion: 2
        time: 40
        value: 0
        inSlope: 0
        outSlope: 0
        tangentMode: 136
      m_PreInfinity: 2
      m_PostInfinity: 2
      m_RotationOrder: 4
    attribute: material._MainTex_ST.w
    path: Scenario_01/Rays/Green_ray
    classID: 23
    script: {fileID: 0}
  m_PPtrCurves: []
  m_SampleRate: 30
  m_WrapMode: 0
  m_Bounds:
    m_Center: {x: 0, y: 0, z: 0}
    m_Extent: {x: 0, y: 0, z: 0}
  m_ClipBindingConstant:
    genericBindings:
    - serializedVersion: 2
      path: 2114929940
      attribute: 4
      script: {fileID: 0}
      typeID: 4
      customType: 14
      isPPtrCurve: 0
    - serializedVersion: 2
      path: 2114929940
      attribute: 3
      script: {fileID: 0}
      typeID: 4
      customType: 0
      isPPtrCurve: 0
    - serializedVersion: 2
      path: 2114929940
      attribute: 2086281974
      script: {fileID: 0}
      typeID: 1
      customType: 0
      isPPtrCurve: 0
    - serializedVersion: 2
      path: 2114929940
      attribute: 2240553488
      script: {fileID: 0}
      typeID: 23
      customType: 22
      isPPtrCurve: 0
    - serializedVersion: 2
      path: 2114929940
      attribute: 646366601
      script: {fileID: 0}
      typeID: 23
      customType: 22
      isPPtrCurve: 0
    - serializedVersion: 2
      path: 2114929940
      attribute: 109495689
      script: {fileID: 0}
      typeID: 23
      customType: 22
      isPPtrCurve: 0
    - serializedVersion: 2
      path: 2114929940
      attribute: 377931145
      script: {fileID: 0}
      typeID: 23
      customType: 22
      isPPtrCurve: 0
    - serializedVersion: 2
      path: 2114929940
      attribute: 914802057
      script: {fileID: 0}
      typeID: 23
      customType: 22
      isPPtrCurve: 0
    pptrCurveMapping: []
  m_AnimationClipSettings:
    serializedVersion: 2
    m_AdditiveReferencePoseClip: {fileID: 0}
    m_AdditiveReferencePoseTime: 0
    m_StartTime: 0
    m_StopTime: 40
    m_OrientationOffsetY: 0
    m_Level: 0
    m_CycleOffset: 0
    m_HasAdditiveReferencePose: 0
    m_LoopTime: 0
    m_LoopBlend: 0
    m_LoopBlendOrientation: 0
    m_LoopBlendPositionY: 0
    m_LoopBlendPositionXZ: 0
    m_KeepOriginalOrientation: 0
    m_KeepOriginalPositionY: 1
    m_KeepOriginalPositionXZ: 0
    m_HeightFromFeet: 0
    m_Mirror: 0
  m_EditorCurves:
  - curve:
      serializedVersion: 2
      m_Curve:
      - serializedVersion: 2
        time: 0
        value: 0
        inSlope: Infinity
        outSlope: Infinity
        tangentMode: 103
      - serializedVersion: 2
        time: 9
        value: 1
        inSlope: Infinity
        outSlope: Infinity
        tangentMode: 103
      - serializedVersion: 2
        time: 22.333334
        value: 0
        inSlope: Infinity
        outSlope: Infinity
        tangentMode: 103
      - serializedVersion: 2
        time: 31
        value: 1
        inSlope: Infinity
        outSlope: Infinity
        tangentMode: 103
      - serializedVersion: 2
        time: 40
        value: 0
        inSlope: Infinity
        outSlope: Infinity
        tangentMode: 103
      m_PreInfinity: 2
      m_PostInfinity: 2
      m_RotationOrder: 4
    attribute: m_IsActive
    path: Scenario_01/Rays/Green_ray
    classID: 1
    script: {fileID: 0}
  - curve:
      serializedVersion: 2
      m_Curve:
      - serializedVersion: 2
        time: 0
        value: 1
        inSlope: 0
        outSlope: 0
        tangentMode: 136
      - serializedVersion: 2
        time: 9
        value: 1
        inSlope: 0
        outSlope: 0
        tangentMode: 136
      - serializedVersion: 2
        time: 9.666667
        value: 0
        inSlope: 0
        outSlope: 0
        tangentMode: 136
      - serializedVersion: 2
        time: 21.666666
        value: 0
        inSlope: 0
        outSlope: 0
        tangentMode: 136
      - serializedVersion: 2
        time: 22.333334
        value: 1
        inSlope: 0
        outSlope: 0
        tangentMode: 136
      - serializedVersion: 2
        time: 31
        value: 1
        inSlope: 0
        outSlope: 0
        tangentMode: 136
      - serializedVersion: 2
        time: 31.666666
        value: 0
        inSlope: 0
        outSlope: 0
        tangentMode: 136
      m_PreInfinity: 2
      m_PostInfinity: 2
      m_RotationOrder: 4
    attribute: material._Transparency
    path: Scenario_01/Rays/Green_ray
    classID: 23
    script: {fileID: 0}
  - curve:
      serializedVersion: 2
      m_Curve:
      - serializedVersion: 2
        time: 0
        value: 0.25
        inSlope: 0
        outSlope: 0
        tangentMode: 136
      - serializedVersion: 2
        time: 9
        value: 0.25
        inSlope: 0
        outSlope: 0
        tangentMode: 136
      - serializedVersion: 2
        time: 40
        value: 0.25
        inSlope: 0
        outSlope: 0
        tangentMode: 136
      m_PreInfinity: 2
      m_PostInfinity: 2
      m_RotationOrder: 4
    attribute: material._MainTex_ST.x
    path: Scenario_01/Rays/Green_ray
    classID: 23
    script: {fileID: 0}
  - curve:
      serializedVersion: 2
      m_Curve:
      - serializedVersion: 2
        time: 0
        value: 1
        inSlope: 0
        outSlope: 0
        tangentMode: 136
      - serializedVersion: 2
        time: 9
        value: 1
        inSlope: 0
        outSlope: 0
        tangentMode: 136
      - serializedVersion: 2
        time: 40
        value: 1
        inSlope: 0
        outSlope: 0
        tangentMode: 136
      m_PreInfinity: 2
      m_PostInfinity: 2
      m_RotationOrder: 4
    attribute: material._MainTex_ST.y
    path: Scenario_01/Rays/Green_ray
    classID: 23
    script: {fileID: 0}
  - curve:
      serializedVersion: 2
      m_Curve:
      - serializedVersion: 2
        time: 0
        value: 0
        inSlope: 0
        outSlope: 0
        tangentMode: 136
      - serializedVersion: 2
        time: 9
        value: 0
        inSlope: 0
        outSlope: 0.73996645
        tangentMode: 1
      - serializedVersion: 2
        time: 40
        value: 23
        inSlope: 0.7419355
        outSlope: 0.7419355
        tangentMode: 34
      m_PreInfinity: 2
      m_PostInfinity: 2
      m_RotationOrder: 4
    attribute: material._MainTex_ST.z
    path: Scenario_01/Rays/Green_ray
    classID: 23
    script: {fileID: 0}
  - curve:
      serializedVersion: 2
      m_Curve:
      - serializedVersion: 2
        time: 0
        value: 0
        inSlope: 0
        outSlope: 0
        tangentMode: 136
      - serializedVersion: 2
        time: 9
        value: 0
        inSlope: 0
        outSlope: 0
        tangentMode: 136
      - serializedVersion: 2
        time: 40
        value: 0
        inSlope: 0
        outSlope: 0
        tangentMode: 136
      m_PreInfinity: 2
      m_PostInfinity: 2
      m_RotationOrder: 4
    attribute: material._MainTex_ST.w
    path: Scenario_01/Rays/Green_ray
    classID: 23
    script: {fileID: 0}
  - curve:
      serializedVersion: 2
      m_Curve:
      - serializedVersion: 2
        time: 0
        value: 2.5310001
        inSlope: 0
        outSlope: 0
        tangentMode: 136
      - serializedVersion: 2
        time: 10
        value: 2.6130002
        inSlope: 0
        outSlope: 0
        tangentMode: 136
      - serializedVersion: 2
        time: 11.666667
        value: 2.6130002
        inSlope: 0
        outSlope: 0
        tangentMode: 136
      - serializedVersion: 2
        time: 13.333333
        value: 2.6130002
        inSlope: 0
        outSlope: 0
        tangentMode: 136
      - serializedVersion: 2
        time: 15
        value: 2.6130002
        inSlope: 0
        outSlope: 0
        tangentMode: 136
      - serializedVersion: 2
        time: 16.666666
        value: 2.6130002
        inSlope: 0
        outSlope: 0
        tangentMode: 136
      - serializedVersion: 2
        time: 18.333334
        value: 2.6130002
        inSlope: 0
        outSlope: 0
        tangentMode: 136
      - serializedVersion: 2
        time: 20
        value: 2.6130002
        inSlope: 0
        outSlope: 0
        tangentMode: 136
      - serializedVersion: 2
        time: 21.666666
        value: 2.6130002
        inSlope: 0
        outSlope: 0
        tangentMode: 136
      - serializedVersion: 2
        time: 23.333334
        value: 2.6130002
        inSlope: 0
        outSlope: 0
        tangentMode: 136
      - serializedVersion: 2
        time: 30
        value: 2.6130002
        inSlope: 0
        outSlope: 0
        tangentMode: 136
      - serializedVersion: 2
        time: 31.666666
        value: 2.6130002
        inSlope: 0
        outSlope: 0
        tangentMode: 136
      - serializedVersion: 2
        time: 33.333332
        value: 2.6130002
        inSlope: 0
        outSlope: 0
        tangentMode: 136
      - serializedVersion: 2
        time: 35
        value: 2.6130002
        inSlope: 0
        outSlope: 0
        tangentMode: 136
      - serializedVersion: 2
        time: 36.666668
        value: 2.6129975
        inSlope: 0
        outSlope: 0
        tangentMode: 136
      - serializedVersion: 2
        time: 38.333332
        value: 2.6129975
        inSlope: 0
        outSlope: 0
        tangentMode: 136
      - serializedVersion: 2
        time: 40
        value: 2.6129975
        inSlope: 0
        outSlope: 0
        tangentMode: 136
      m_PreInfinity: 2
      m_PostInfinity: 2
      m_RotationOrder: 4
    attribute: localEulerAnglesRaw.x
    path: Scenario_01/Rays/Green_ray
    classID: 4
    script: {fileID: 0}
  - curve:
      serializedVersion: 2
      m_Curve:
      - serializedVersion: 2
        time: 0
        value: 7.15
        inSlope: 0
        outSlope: 0
        tangentMode: 136
      - serializedVersion: 2
        time: 10
        value: 7.3
        inSlope: 0.07949992
        outSlope: 0.07949992
        tangentMode: 34
      - serializedVersion: 2
        time: 11.666667
        value: 7.54
        inSlope: 0.13499996
        outSlope: 0.13499996
        tangentMode: 34
      - serializedVersion: 2
        time: 13.333333
        value: 7.75
        inSlope: 0.11699998
        outSlope: 0.11699998
        tangentMode: 34
      - serializedVersion: 2
        time: 15
        value: 7.93
        inSlope: 0.1319999
        outSlope: 0.1319999
        tangentMode: 34
      - serializedVersion: 2
        time: 16.666666
        value: 8.19
        inSlope: 0.14099991
        outSlope: 0.14099991
        tangentMode: 34
      - serializedVersion: 2
        time: 18.333334
        value: 8.4
        inSlope: 0.14400014
        outSlope: 0.14400014
        tangentMode: 34
      - serializedVersion: 2
        time: 20
        value: 8.67
        inSlope: 0.15000007
        outSlope: 0.15000007
        tangentMode: 34
      - serializedVersion: 2
        time: 21.666666
        value: 8.9
        inSlope: 0.18899997
        outSlope: 0.18899997
        tangentMode: 34
      - serializedVersion: 2
        time: 23.333334
        value: 9.3
        inSlope: 0.2017501
        outSlope: 0.2017501
        tangentMode: 34
      - serializedVersion: 2
        time: 30
        value: 10.39
        inSlope: 0.0847498
        outSlope: 0.0847498
        tangentMode: 34
      - serializedVersion: 2
        time: 31.666666
        value: 10.4
        inSlope: 0.03299991
        outSlope: 0.03299991
        tangentMode: 34
      - serializedVersion: 2
        time: 33.333332
        value: 10.5
        inSlope: 0.06000022
        outSlope: 0.06000022
        tangentMode: 34
      - serializedVersion: 2
        time: 35
        value: 10.6
        inSlope: 0.030001236
        outSlope: 0.030001236
        tangentMode: 34
      - serializedVersion: 2
        time: 36.666668
        value: 10.600004
        inSlope: 0.029999873
        outSlope: 0.029999873
        tangentMode: 34
      - serializedVersion: 2
        time: 38.333332
        value: 10.7
        inSlope: 0.029998729
        outSlope: 0.029998729
        tangentMode: 34
      - serializedVersion: 2
        time: 40
        value: 10.7
        inSlope: 0
        outSlope: 0
        tangentMode: 34
      m_PreInfinity: 2
      m_PostInfinity: 2
      m_RotationOrder: 4
    attribute: localEulerAnglesRaw.y
    path: Scenario_01/Rays/Green_ray
    classID: 4
    script: {fileID: 0}
  - curve:
      serializedVersion: 2
      m_Curve:
      - serializedVersion: 2
        time: 0
        value: -18.263
        inSlope: 0
        outSlope: 0
        tangentMode: 136
      - serializedVersion: 2
        time: 10
        value: -19.09
        inSlope: -0.15745713
        outSlope: -0.15745713
        tangentMode: 136
      - serializedVersion: 2
        time: 11.666667
        value: -20.1
        inSlope: -0.52500004
        outSlope: -0.52500004
        tangentMode: 136
      - serializedVersion: 2
        time: 13.333333
        value: -20.84
        inSlope: -0.41999993
        outSlope: -0.41999993
        tangentMode: 136
      - serializedVersion: 2
        time: 15
        value: -21.5
        inSlope: -0.51899993
        outSlope: -0.51899993
        tangentMode: 136
      - serializedVersion: 2
        time: 16.666666
        value: -22.57
        inSlope: -0.6029999
        outSlope: -0.6029999
        tangentMode: 136
      - serializedVersion: 2
        time: 18.333334
        value: -23.51
        inSlope: 0
        outSlope: 0
        tangentMode: 136
      - serializedVersion: 2
        time: 20
        value: -23.51
        inSlope: 0
        outSlope: 0
        tangentMode: 136
      - serializedVersion: 2
        time: 21.666666
        value: -23.24
        inSlope: 0.1169998
        outSlope: 0.1169998
        tangentMode: 136
      - serializedVersion: 2
        time: 23.333334
        value: -23.12
        inSlope: 0.05759948
        outSlope: 0.05759948
        tangentMode: 136
      - serializedVersion: 2
        time: 30
        value: -21.28
        inSlope: 0.47160012
        outSlope: 0.47160012
        tangentMode: 136
      - serializedVersion: 2
        time: 31.666666
        value: -19.19
        inSlope: 1.2240005
        outSlope: 1.2240005
        tangentMode: 136
      - serializedVersion: 2
        time: 33.333332
        value: -17.2
        inSlope: 1.209
        outSlope: 1.209
        tangentMode: 136
      - serializedVersion: 2
        time: 35
        value: -15.16
        inSlope: 1.2839992
        outSlope: 1.2839992
        tangentMode: 136
      - serializedVersion: 2
        time: 36.666668
        value: -12.92
        inSlope: 1.3080004
        outSlope: 1.3080004
        tangentMode: 136
      - serializedVersion: 2
        time: 38.333332
        value: -10.8
        inSlope: 1.2660005
        outSlope: 1.2660005
        tangentMode: 136
      - serializedVersion: 2
        time: 40
        value: -8.7
        inSlope: 0
        outSlope: 0
        tangentMode: 136
      m_PreInfinity: 2
      m_PostInfinity: 2
      m_RotationOrder: 4
    attribute: localEulerAnglesRaw.z
    path: Scenario_01/Rays/Green_ray
    classID: 4
    script: {fileID: 0}
  - curve:
      serializedVersion: 2
      m_Curve:
      - serializedVersion: 2
        time: 0
        value: 1.06
        inSlope: 0
        outSlope: 0
        tangentMode: 136
      - serializedVersion: 2
        time: 10
        value: 1.04
        inSlope: -0.0034285681
        outSlope: -0.0034285681
        tangentMode: 136
      - serializedVersion: 2
        time: 11.666667
        value: 1.02
        inSlope: -0.013499988
        outSlope: -0.013499988
        tangentMode: 136
      - serializedVersion: 2
        time: 13.333333
        value: 0.995
        inSlope: -0.013800003
        outSlope: -0.013800003
        tangentMode: 136
      - serializedVersion: 2
        time: 15
        value: 0.974
        inSlope: -0.01320001
        outSlope: -0.01320001
        tangentMode: 136
      - serializedVersion: 2
        time: 16.666666
        value: 0.951
        inSlope: -0.013199989
        outSlope: -0.013199989
        tangentMode: 136
      - serializedVersion: 2
        time: 18.333334
        value: 0.93
        inSlope: -0.013799999
        outSlope: -0.013799999
        tangentMode: 136
      - serializedVersion: 2
        time: 20
        value: 0.905
        inSlope: -0.015000009
        outSlope: -0.015000009
        tangentMode: 136
      - serializedVersion: 2
        time: 21.666666
        value: 0.88
        inSlope: -0.016499981
        outSlope: -0.016499981
        tangentMode: 136
      - serializedVersion: 2
        time: 23.333334
        value: 0.85
        inSlope: -0.014399985
        outSlope: -0.014399985
        tangentMode: 136
      - serializedVersion: 2
        time: 30
        value: 0.76
        inSlope: -0.002399998
        outSlope: -0.002399998
        tangentMode: 136
      - serializedVersion: 2
        time: 31.666666
        value: 0.755
        inSlope: -0.003900005
        outSlope: -0.003900005
        tangentMode: 136
      - serializedVersion: 2
        time: 33.333332
        value: 0.747
        inSlope: -0.0036000067
        outSlope: -0.0036000067
        tangentMode: 136
      - serializedVersion: 2
        time: 35
        value: 0.743
        inSlope: -0.002699999
        outSlope: -0.002699999
        tangentMode: 136
      - serializedVersion: 2
        time: 36.666668
        value: 0.738
        inSlope: -0.0029999984
        outSlope: -0.0029999984
        tangentMode: 136
      - serializedVersion: 2
        time: 38.333332
        value: 0.733
        inSlope: 0
        outSlope: 0
        tangentMode: 136
      m_PreInfinity: 2
      m_PostInfinity: 2
      m_RotationOrder: 4
    attribute: m_LocalScale.x
    path: Scenario_01/Rays/Green_ray
    classID: 4
    script: {fileID: 0}
  - curve:
      serializedVersion: 2
      m_Curve:
      - serializedVersion: 2
        time: 0
        value: 1
        inSlope: 0
        outSlope: 0
        tangentMode: 136
      - serializedVersion: 2
        time: 10
        value: 1
        inSlope: 0
        outSlope: 0
        tangentMode: 136
      - serializedVersion: 2
        time: 11.666667
        value: 1
        inSlope: 0
        outSlope: 0
        tangentMode: 136
      - serializedVersion: 2
        time: 13.333333
        value: 1
        inSlope: 0
        outSlope: 0
        tangentMode: 136
      - serializedVersion: 2
        time: 15
        value: 1
        inSlope: 0
        outSlope: 0
        tangentMode: 136
      - serializedVersion: 2
        time: 16.666666
        value: 1
        inSlope: 0
        outSlope: 0
        tangentMode: 136
      - serializedVersion: 2
        time: 18.333334
        value: 1
        inSlope: 0
        outSlope: 0
        tangentMode: 136
      - serializedVersion: 2
        time: 20
        value: 1
        inSlope: 0
        outSlope: 0
        tangentMode: 136
      - serializedVersion: 2
        time: 21.666666
        value: 1
        inSlope: 0
        outSlope: 0
        tangentMode: 136
      - serializedVersion: 2
        time: 23.333334
        value: 1
        inSlope: 0
        outSlope: 0
        tangentMode: 136
      - serializedVersion: 2
        time: 30
        value: 1
        inSlope: 0
        outSlope: 0
        tangentMode: 136
      - serializedVersion: 2
        time: 31.666666
        value: 1
        inSlope: 0
        outSlope: 0
        tangentMode: 136
      - serializedVersion: 2
        time: 33.333332
        value: 1
        inSlope: 0
        outSlope: 0
        tangentMode: 136
      - serializedVersion: 2
        time: 35
        value: 1
        inSlope: 0
        outSlope: 0
        tangentMode: 136
      - serializedVersion: 2
        time: 36.666668
        value: 1
        inSlope: 0
        outSlope: 0
        tangentMode: 136
      - serializedVersion: 2
        time: 38.333332
        value: 1
        inSlope: 0
        outSlope: 0
        tangentMode: 136
      m_PreInfinity: 2
      m_PostInfinity: 2
      m_RotationOrder: 4
    attribute: m_LocalScale.y
    path: Scenario_01/Rays/Green_ray
    classID: 4
    script: {fileID: 0}
  - curve:
      serializedVersion: 2
      m_Curve:
      - serializedVersion: 2
        time: 0
        value: 1
        inSlope: 0
        outSlope: 0
        tangentMode: 136
      - serializedVersion: 2
        time: 10
        value: 1
        inSlope: 0
        outSlope: 0
        tangentMode: 136
      - serializedVersion: 2
        time: 11.666667
        value: 1
        inSlope: 0
        outSlope: 0
        tangentMode: 136
      - serializedVersion: 2
        time: 13.333333
        value: 1
        inSlope: 0
        outSlope: 0
        tangentMode: 136
      - serializedVersion: 2
        time: 15
        value: 1
        inSlope: 0
        outSlope: 0
        tangentMode: 136
      - serializedVersion: 2
        time: 16.666666
        value: 1
        inSlope: 0
        outSlope: 0
        tangentMode: 136
      - serializedVersion: 2
        time: 18.333334
        value: 1
        inSlope: 0
        outSlope: 0
        tangentMode: 136
      - serializedVersion: 2
        time: 20
        value: 1
        inSlope: 0
        outSlope: 0
        tangentMode: 136
      - serializedVersion: 2
        time: 21.666666
        value: 1
        inSlope: 0
        outSlope: 0
        tangentMode: 136
      - serializedVersion: 2
        time: 23.333334
        value: 1
        inSlope: 0
        outSlope: 0
        tangentMode: 136
      - serializedVersion: 2
        time: 30
        value: 1
        inSlope: 0
        outSlope: 0
        tangentMode: 136
      - serializedVersion: 2
        time: 31.666666
        value: 1
        inSlope: 0
        outSlope: 0
        tangentMode: 136
      - serializedVersion: 2
        time: 33.333332
        value: 1
        inSlope: 0
        outSlope: 0
        tangentMode: 136
      - serializedVersion: 2
        time: 35
        value: 1
        inSlope: 0
        outSlope: 0
        tangentMode: 136
      - serializedVersion: 2
        time: 36.666668
        value: 1
        inSlope: 0
        outSlope: 0
        tangentMode: 136
      - serializedVersion: 2
        time: 38.333332
        value: 1
        inSlope: 0
        outSlope: 0
        tangentMode: 136
      m_PreInfinity: 2
      m_PostInfinity: 2
      m_RotationOrder: 4
    attribute: m_LocalScale.z
    path: Scenario_01/Rays/Green_ray
    classID: 4
    script: {fileID: 0}
  m_EulerEditorCurves:
  - curve:
      serializedVersion: 2
      m_Curve: []
      m_PreInfinity: 2
      m_PostInfinity: 2
      m_RotationOrder: 4
    attribute: m_LocalEulerAngles.x
    path: Scenario_01/Rays/Green_ray
    classID: 4
    script: {fileID: 0}
  - curve:
      serializedVersion: 2
      m_Curve: []
      m_PreInfinity: 2
      m_PostInfinity: 2
      m_RotationOrder: 4
    attribute: m_LocalEulerAngles.y
    path: Scenario_01/Rays/Green_ray
    classID: 4
    script: {fileID: 0}
  - curve:
      serializedVersion: 2
      m_Curve: []
      m_PreInfinity: 2
      m_PostInfinity: 2
      m_RotationOrder: 4
    attribute: m_LocalEulerAngles.z
    path: Scenario_01/Rays/Green_ray
    classID: 4
    script: {fileID: 0}
  m_HasGenericRootTransform: 0
  m_HasMotionFloatCurves: 0
  m_GenerateMotionCurves: 0
  m_Events: []
